<svg width="29" height="28" viewBox="0 0 29 28" fill="none" xmlns="http://www.w3.org/2000/svg">
<ellipse cx="14.5" cy="25.5" rx="2.49996" ry="2.5" fill="#E9E9E9"/>
<ellipse cx="2.49996" cy="25.5" rx="2.49996" ry="2.5" fill="#E9E9E9" fill-opacity="0.25"/>
<ellipse cx="26.5" cy="25.5" rx="2.49996" ry="2.5" fill="#E9E9E9" fill-opacity="0.25"/>
<ellipse cx="14.5" cy="13.5" rx="2.49996" ry="2.5" fill="#E9E9E9"/>
<ellipse cx="2.49996" cy="13.5" rx="2.49996" ry="2.5" fill="#E9E9E9" fill-opacity="0.25"/>
<ellipse cx="26.5" cy="13.5" rx="2.49996" ry="2.5" fill="#E9E9E9" fill-opacity="0.25"/>
<ellipse cx="14.5" cy="2.5" rx="2.49996" ry="2.5" fill="#E9E9E9"/>
<ellipse cx="2.49996" cy="2.5" rx="2.49996" ry="2.5" fill="#E9E9E9" fill-opacity="0.25"/>
<ellipse cx="26.5" cy="2.5" rx="2.49996" ry="2.5" fill="#E9E9E9" fill-opacity="0.25"/>
</svg>
