<svg width="50" height="36" viewBox="0 0 50 36" fill="none" xmlns="http://www.w3.org/2000/svg">
<path d="M5.69768 21.4054C6.18605 21.7297 6.83723 22.5405 6.83723 23.3514C7.00002 24.4865 6.51165 25.4595 6.02328 25.9459C6.02328 25.9459 6.18607 26.1081 6.02328 26.2703C6.18607 26.9189 6.34884 27.5676 6.51163 28.3784C6.51163 28.7027 6.51164 29.027 6.67443 29.1892L6.83723 29.3513C7.00002 29.5135 7 30 7.32558 30C7.65117 30.4865 7.97676 30.973 8.30234 31.4595C8.46513 31.7838 8.4651 32.2703 8.62789 32.7568C8.79068 33.2432 8.7907 33.5676 8.95349 34.0541C8.95349 34.5405 8.7907 35.1892 8.95349 35.6757C9.93024 35.8378 10.907 35.8378 11.721 35.6757C11.721 35.3514 11.721 34.7027 11.721 34.2162C11.721 34.0541 11.721 34.2162 11.721 34.2162C11.721 33.2432 11.7209 31.7838 11.3954 30.6487C11.3954 30.3243 11.3953 30 11.2326 29.6757V29.5135C11.2326 28.8649 11.0698 28.3784 11.0698 27.7297C11.0698 27.7297 11.2325 27.4054 11.0698 27.2432C11.2325 26.5946 11.2326 25.9459 11.3954 25.2973C11.5581 24.8108 12.0465 24.3243 11.8837 23.6757C11.8837 23.3513 11.721 22.8649 11.721 22.5405C11.721 22.3784 11.8837 22.2162 12.0465 21.8919C12.3721 21.4054 12.6977 21.0811 13.1861 20.7568C13.3489 20.5946 13.5116 20.5946 13.6744 20.5946C13.8372 20.5946 14 20.4324 14.1628 20.4324C14 20.7568 14.1628 21.4054 13.8372 22.0541C13.6744 22.2162 13.3488 22.5405 13.5116 22.7027C13.5116 22.8649 13.8372 22.8649 13.8372 22.8649C13.6744 23.027 14 23.1892 14 23.5135C14 23.6757 14 23.8378 14 24C14 24.1622 14.1628 24.1622 14.1628 24.3243C14.1628 24.4865 14 24.6486 14 24.8108C14 24.973 14.1628 24.973 14.1628 25.1351C14.3256 26.9189 14.4884 28.7027 14.3256 30.4865C14.3256 30.973 14 31.4595 14 31.9459C14 32.2703 14.1628 32.5946 14.1628 33.0811C14.1628 33.8919 14 34.8649 14 35.6757C14.3256 35.8378 14.6511 35.8378 15.1395 35.8378C15.6279 35.8378 16.1163 35.6757 16.4419 35.6757C16.4419 34.7027 16.2791 33.7297 15.7907 33.0811C15.7907 32.9189 15.7907 32.9189 15.6279 32.7568C15.6279 32.7568 15.6279 32.7568 15.6279 32.9189C15.4651 32.9189 15.4651 32.5946 15.4651 32.4324C15.4651 32.2703 15.4651 32.4324 15.4651 32.4324C15.3023 31.2973 15.4651 30 15.6279 28.8649C15.7907 27.8919 15.9535 26.9189 16.1163 25.9459C16.2791 24.973 16.7674 24.1622 16.9302 23.1892C17.093 22.3784 17.093 21.5676 17.2558 20.7568C17.2558 20.4324 17.2558 20.2703 17.4186 19.9459C17.4186 19.7838 17.7442 19.6216 17.7442 19.4595C18.0698 18.973 18.3954 18.3243 18.7209 17.6757C18.8837 17.1892 19.2093 16.8649 19.2093 16.3784C19.3721 15.7297 19.5349 15.0811 19.5349 14.4324C19.5349 13.1351 19.2093 12 19.3721 10.8649C19.3721 10.3784 19.5349 9.72973 19.6977 9.08108C19.8605 8.59459 19.8605 7.94595 20.0232 7.45946C20.186 7.13514 20.1861 6.64865 20.3488 6.32432C20.5116 5.18919 19.5349 4.54054 19.8605 3.56757C20.0233 3.40541 20.1861 3.08108 20.5116 2.75676C20.6744 2.43243 21 2.10811 21 1.78378C21 1.2973 20.6744 1.13514 20.3488 1.13514C20.0233 1.45946 19.3721 1.2973 18.8837 1.45946C18.5582 1.62162 18.3954 1.78378 18.0698 1.78378C18.0698 1.45946 18.2326 0.648649 18.0698 0.162163C17.7442 0.324325 17.7442 0.648649 17.5814 0.972974C17.4186 1.2973 17.2558 1.45946 17.093 1.78378C16.9302 1.62162 16.7675 1.2973 16.4419 1.2973C16.1163 1.2973 15.9535 1.45946 15.7907 1.45946C15.7907 1.2973 15.7907 0.81081 15.6279 0.486485C15.6279 0.324323 15.4651 0.162163 15.3023 0.162163C14.9767 0.486487 14.9768 1.13514 14.814 1.62162C14.4884 1.45946 14.4884 0.81081 14.3256 0.486485C13.6744 0.486485 13.1861 0 12.5349 0C12.3721 0.324324 12.3721 0.810812 12.3721 1.13514C12.3721 1.62162 12.5349 2.27027 12.6977 2.75676C12.8605 3.08108 13.0233 3.24324 13.0233 3.40541C13.1861 4.05405 12.8605 4.54054 12.5349 4.86486C12.3721 5.02703 12.3721 5.02703 12.2093 5.18919C12.2093 5.51351 12.2093 5.83784 12.2093 6.16216C12.2093 6.32432 12.0465 6.48649 11.8837 6.64865C11.8837 6.81081 11.8837 6.81081 11.721 6.81081C11.5582 6.97297 11.3953 6.97297 11.2326 7.13513C10.4186 7.62162 9.27909 7.78378 8.46514 8.10811C8.13956 8.27027 7.65117 8.43243 7.32558 8.59459C6.67442 8.59459 6.18605 8.59459 5.69768 8.91892C5.3721 9.08108 4.88374 9.40541 4.39537 9.56757C3.74421 9.72973 3.09303 10.0541 2.60466 10.5405C2.44187 10.7027 2.27905 10.7027 2.11626 10.8649C1.79068 11.027 1.4651 11.5135 1.30231 12C0.976725 12.4865 0.813944 12.8108 0.651153 13.2973C0.325572 14.2703 0 15.2432 0 16.5405C0 16.8649 9.93353e-06 17.1892 0.162801 17.3514C0.162801 17.5135 0.162811 17.5135 0.325601 17.5135C0.325601 17.8378 0.488372 18 0.813954 18.3243C1.30233 18.8108 1.62792 19.2973 1.79071 19.9459C1.79071 20.1081 1.79072 20.1081 1.95351 20.1081C1.95351 21.0811 1.9535 21.8919 1.79071 22.7027C1.62792 23.5135 1.4651 24.3243 1.30231 25.1351C0.976725 26.7568 0.488352 28.3784 0.488352 30.1622C0.325562 32.1081 0.813944 34.0541 0.651153 36C1.30232 36 2.27905 36 2.93021 35.8378C3.093 35.6757 3.09301 35.1892 3.09301 34.7027C2.93022 34.2162 2.76744 33.7297 2.44186 33.2432C2.27907 32.7568 2.1163 32.2703 1.95351 31.7838C1.62793 30.6486 1.62793 29.5135 1.95351 28.3784C2.1163 27.5676 2.44184 26.5946 2.93021 25.7838C3.093 25.6216 3.25584 25.2973 3.58142 25.1351C3.74421 25.1351 3.90698 25.2973 4.06977 25.2973C4.23256 25.1351 4.23257 24.6486 4.23257 24.4865C4.39536 24.4865 4.55813 24.6486 4.72092 24.4865C4.88371 24.1622 4.72094 23.6757 5.04652 23.5135C5.37211 23.5135 5.3721 24 5.69768 23.8378C5.69768 23.5135 5.53489 23.027 5.69768 22.7027C5.04651 22.2162 5.3721 21.7297 5.69768 21.4054Z" fill="#E9E9E9"/>
<path d="M27.3503 14.1103C26.4586 13.6345 25.2102 13.9517 24.6751 14.5862C24.3185 14.269 24.1401 14.1103 23.7834 13.9517C23.4267 13.7931 22.8917 13.4759 22.3567 13.6345C21.8217 13.7931 22 15.0621 22.1783 15.3793C22.535 15.8552 22.8917 16.0138 23.2484 16.331C23.0701 16.8069 23.07 17.1241 22.7133 17.4414C22.535 17.7586 22.3567 18.2345 22.3567 18.5517C22.3567 19.1862 22.535 19.6621 22.7133 19.9793C22.8917 20.4552 23.0701 20.7724 23.2484 21.2483C23.4268 21.7241 23.6051 22.0414 23.9618 22.5172C24.6752 23.6276 25.7452 24.4207 26.9936 25.2138C27.5287 25.531 28.242 26.0069 28.5987 26.3241C28.7771 26.4828 28.9554 26.6414 29.1337 26.8C29.3121 27.1172 29.3121 27.4345 29.3121 27.7517C29.3121 28.069 29.4904 28.3862 29.4904 28.7034C29.4904 29.1793 29.3121 29.4966 29.3121 29.9724C29.3121 30.4483 29.6688 30.7655 29.8471 31.2414C30.0254 31.5586 30.0255 31.8759 30.0255 32.3517C30.0255 33.1448 29.8471 33.7793 29.6688 34.2552C29.4905 34.731 29.1338 35.3655 29.4904 36C30.2038 36 30.9172 36 31.6305 36C31.6305 35.6828 31.8089 35.3655 31.6305 35.0483C31.6305 34.8897 31.6305 34.5724 31.6305 34.4138C31.6305 33.7793 31.8089 33.1448 31.9873 32.669C31.9873 32.5103 31.9873 32.3517 32.1656 32.1931C32.344 32.5103 32.3439 32.8276 32.5223 32.9862C32.7006 33.3034 32.7006 33.6207 32.879 33.7793C33.0573 34.4138 33.0573 35.2069 33.0573 35.8414C33.7707 35.8414 34.484 35.8414 35.1974 35.8414C35.1974 35.3655 34.8408 34.8897 34.6624 34.4138C34.4841 33.9379 34.3057 33.4621 34.1274 32.9862C33.9491 32.5103 33.7707 32.0345 33.7707 31.4C33.7707 30.9241 33.5923 30.2897 33.7707 29.6552C33.7707 29.3379 33.9491 29.0207 34.1274 28.7034C34.4841 28.069 34.8408 27.5931 35.7325 27.4345C36.0892 27.4345 36.2675 27.4345 36.6242 27.4345C37.1592 27.5931 37.8726 27.5931 38.4076 27.7517C38.9427 27.9103 39.4777 28.069 40.0127 28.2276C40.1911 28.3862 40.5478 28.3862 40.7261 28.5448C41.0828 28.7034 41.4395 28.7034 41.6178 28.8621C41.9745 29.0207 42.1528 29.3379 42.3312 29.4965C42.8662 29.9724 43.4012 30.2897 44.1146 30.6069C44.4713 30.7655 44.828 30.9241 45.0063 31.0828C45.1847 31.4 45.5414 31.8759 45.5414 32.3517C45.5414 32.8276 45.363 33.3034 45.363 33.7793C45.363 34.4138 45.363 34.8897 45.363 35.5241C46.0764 35.5241 46.9681 35.5241 47.6815 35.5241C47.6815 34.731 47.5032 33.9379 47.6815 33.1448C47.6815 32.8276 47.6815 32.5103 47.6815 32.1931C47.6815 31.7172 48.0382 31.2414 47.8598 30.6069C47.8598 30.2897 47.6815 30.131 47.5032 29.8138C47.3249 29.4965 47.1465 29.0207 47.3248 28.7034C47.3248 28.3862 47.5032 28.2276 47.5032 28.069C47.6815 27.7517 47.8599 27.4345 48.2166 27.1172C48.3949 26.8 48.7516 26.6414 48.9299 26.3241C49.1083 26.0069 49.1083 25.6897 49.1083 25.3724C49.2866 24.8966 49.8217 24.7379 50 24.4207C50 24.2621 50 23.9448 50 23.7862C49.8217 23.469 49.2866 23.1517 48.9299 22.8345C47.8599 22.0414 47.1465 20.6138 45.5414 20.2965C45.0064 20.1379 44.293 20.1379 43.758 19.9793C42.5096 19.8207 41.2611 19.6621 40.1911 19.5034C39.6561 19.3448 39.121 19.1862 38.586 19.0276C38.586 19.0276 38.7643 19.0276 38.586 19.0276C38.051 18.7103 37.5159 18.7103 36.9809 18.5517C36.4458 18.3931 36.0892 18.0759 35.5541 17.9172C35.0191 17.7586 34.4841 17.6 33.7707 17.6C33.414 17.6 33.2357 17.4414 32.879 17.4414C32.5223 17.4414 32.1656 17.4414 31.8089 17.2828C31.4522 17.1241 31.2739 16.9655 30.9172 16.8069C30.5605 16.6483 30.2038 16.6483 29.8471 16.4897C29.6688 16.331 29.6688 16.1724 29.4904 15.8552C29.4904 15.6966 29.6688 15.5379 29.8471 15.5379C30.3821 14.9034 30.5605 14.1103 30.7388 13.1586C30.5605 13 30.3822 13 30.2038 13C28.5987 13.3172 27.8853 13.7931 27.3503 14.1103Z" fill="#E9E9E9"/>
</svg>
