<svg width="6" height="10" viewBox="0 0 6 10" fill="none" xmlns="http://www.w3.org/2000/svg">
<path d="M1 1L5 5.00008L1 9" stroke="#18A6F7" stroke-width="2" stroke-linecap="round" stroke-linejoin="round"/>
</svg>
